"oddzial";"lat";"lon";"segment"
"Z1084";50,8658667627024;15,7846693489701;3
"Z2928";52,2126726427814;16,817793995142;3
"Z3260";51,4358920908999;17,7103394158185;1
"Z1695";50,3708797520958;21,1551315151155;3
"Z4442";53,6799169611186;21,3891052175313;2
"Z2284";51,5333985085599;20,7526266742498;2
"Z2585";51,9619169379584;21,0277238339186;2
"Z1324";53,1126252575777;16,0617979671806;5
"Z0238";50,1805764127057;22,1217874120921;1
"Z4749";50,250399231445;19,9410221669823;1
"Z0273";51,4640428792918;15,8902216795832;3
"Z3359";49,9406821194571;16,9174832068384;5
"Z3958";53,271575047751;19,1485595535487;3
"Z3436";51,4757630912354;17,6619965005666;4
"Z3137";51,4414356385823;16,686833627522;2
"Z0224";50,1278663546545;21,2601454090327;2
"Z0276";51,4207476734882;16,258136017248;5
"Z3394";49,6010157549754;22,438712945208;3
"Z1732";50,0495033247862;16,0801411438733;2
"Z3339";49,5795950145693;22,7486800774932;4
"Z1617";52,0238075845409;20,6795744393021;1
"Z0086";52,8782260237494;15,2429719977081;3
"Z4218";53,4265217635548;17,9715106971562;5
"Z3365";51,2707252021646;16,5226600747555;5
"Z2825";52,0386020438746;17,4013768769801;5
"Z1281";53,0263046395266;19,8654904980212;5
"Z3918";51,5488859144971;18,3784696273506;5
"Z3089";50,3172695792746;20,3585734628141;3
"Z0150";53,1308125206269;16,4909647535533;4
"Z2651";50,8939307554392;18,1380526740104;3
"Z1439";50,9189761367161;19,3303818348795;4
"Z1289";49,9817451636773;16,7736130263656;4
"Z3265";53,4225098651368;19,6117636039853;3
"Z2376";50,474998924532;22,9010186605155;5
"Z4737";50,5820774242748;16,2697172146291;4
"Z2938";52,1277243968798;22,5759709998965;4
"Z3384";53,5856137652881;19,759224742651;3
"Z3872";51,6454347133404;21,1651605274528;3
"Z3078";51,5819709805073;16,4091007653624;5
"Z0257";50,7104842906119;19,0723441243172;2
"Z1890";49,6199765964411;20,5601054802537;5
"Z4875";52,8741690149764;15,2507659755647;5
"Z2295";53,6494113891385;20,7005037050694;5
"Z4388";51,3901502169902;16,0288597904146;1
"Z1060";50,6792662998196;19,8334230259061;2
"Z0112";53,9025209062966;16,4195412769914;3
"Z4788";52,8337994852336;19,4704446867108;4
"Z2922";51,1677753879922;22,2823527865112;5
"Z2802";51,1999341740739;18,1584362946451;3
"Z2230";52,6142228121171;20,5679702199996;2
"Z3567";49,513998555718;16,3178820759058;1
"Z3572";51,620083779213;20,5960192065686;4
"Z3682";53,0834775790572;21,3964248169214;4
"Z3355";51,3861146114068;18,7192499693483;5
"Z4658";52,5381497234339;16,2755979131907;2
"Z3002";51,01889492583;19,8895915020257;2
"Z3659";49,66104878427;15,253712227568;2
"Z2837";53,2749523145612;16,989675892517;3
"Z4016";51,7011457431363;20,7309971880168;4
"Z3221";52,4977749749087;18,8982349447906;5
"Z4375";50,5582879527938;19,9227321185172;1
"Z0181";49,5516239425633;17,8221531454474;3
"Z3649";50,9671169511275;22,3787714391947;5
"Z0200";51,2447393262992;19,1980594825;2
"Z2694";53,4190737060271;17,4943610802293;2
"Z1794";50,4330116707133;15,9301430117339;3
"Z3873";51,6972164389445;17,4760032277554;5
"Z4063";52,0517772064777;21,6304327230901;3
"Z1402";53,9285834388575;17,7096589971334;3
"Z1724";50,466450702399;17,1476881578565;2
"Z2142";50,4927389302757;17,5191644970328;1
"Z0160";53,4122877999907;15,2737612444907;1
"Z4004";51,4168861872749;16,7137034740299;2
"Z4510";50,3863889069762;19,1936371978372;5
"Z0059";52,6029455187963;21,4352929610759;2
"Z3024";51,0604973874288;16,4180303290486;4
"Z3582";50,9009574400261;19,3395659588277;2
"Z4398";52,979919040692;17,471724992618;1
"Z0240";49,5189414646011;17,3738594055176;1
"Z0623";51,0180274271406;22,1480935495347;3
"Z4806";52,9966458021663;22,6407896615565;3
"Z0693";53,0442734481767;18,5435176957399;3
"Z3905";52,282786036958;16,6452138740569;4
"Z1831";51,1943587081041;20,8956596013159;5
"Z1230";50,5153296072967;15,1748160142452;5
"Z0840";51,3030522465706;21,0585574284196;3
"Z0092";51,4016716971528;21,7344310320914;2
"Z0700";53,4416188064497;15,8874000012875;4
"Z0625";51,2139359002467;20,9518194049597;5
"Z2217";50,772978149238;19,3785685040057;1
"Z2074";52,0295960210497;22,608558177948;4
"Z3033";51,1810870614136;15,5946285221726;5
"Z2830";51,935512460419;22,2412308901548;3
"Z3181";53,0631710775197;20,9181602671742;3
"Z4793";51,6567755404394;17,1241293419152;1
"Z0277";50,5077860536985;16,3870704583824;3
"Z1047";51,316401315853;20,4405979197472;3
"Z3364";51,2936809393577;15,4589959364384;1
"Z1930";52,4941362671088;18,5909763257951;5
"Z0818";52,6167935795384;19,9155728258193;2
"Z4325";53,0629829687532;20,4063163883984;3
"Z2108";52,3267807440134;22,975726203993;1
"Z1498";49,7287177598337;22,5177065953612;3
"Z4644";51,3729329496855;22,3411354999989;3
"Z4121";51,4489170875167;15,1808806080371;3
"Z4048";50,9791459576227;19,8512895088643;3
"Z3758";53,3112513993401;16,5542500317097;5
"Z1811";53,6653602942824;22,517980825156;1
"Z0459";52,3295018775389;16,2706272192299;3
"Z4241";50,5465419392567;15,6043483912945;5
"Z2666";53,7742752428167;20,2787811718881;5
"Z4435";52,4821370247519;21,5792783331126;3
"Z2597";53,7988486579852;20,4639298524708;2
"Z4395";53,6277817811351;19,5505173746496;3
"Z2755";49,6222721210215;22,322621749714;2
"Z3039";51,5177540006116;21,9051750712097;2
"Z2041";52,5456379711395;18,6761190723628;3
"Z1788";53,9571937535657;19,7269042376429;5
"Z4350";51,5223235659068;22,269735366106;1
"Z1168";50,5943332827883;16,8921855408698;1
"Z4541";50,9510382469743;20,7377269621938;3
"Z4087";52,9416324023623;16,5568025633693;2
"Z4280";51,8033222848317;21,0907581504434;5
"Z1561";52,2836195648415;20,1614866051823;3
"Z2654";52,0994996497175;18,0282566938549;1
"Z0211";53,3262160364538;18,9193428903818;1
"Z3509";53,4187486893497;20,3561290130019;3
"Z4240";52,2852143717464;19,0541301369667;3
"Z0128";52,6985114043346;21,9860272370279;1
"Z3252";53,7049921914004;20,7152579333633;1
"Z4727";52,754381237668;21,1169143505394;4
"Z1565";52,3314042981947;16,9801286235452;1
"Z2952";51,4862667747075;18,5186059977859;5
"Z2465";53,7346130566439;20,1768440511078;4
"Z0418";52,8069671859266;21,2457667011768;2
"Z3428";50,7617447959492;20,4799899309874;3
"Z4215";50,5754200149095;18,5030436478555;4
"Z0420";53,5332462431397;20,6975180376321;2
"Z1708";49,636529071955;21,5525585748255;4
"Z1978";52,9214788527461;19,1071972250938;4
"Z1660";53,3296397641534;15,657864222303;1
"Z1315";51,0407473122468;15,7911685034633;1
"Z2770";49,5029843556695;19,0073908362538;3
"Z1983";52,6937996515771;16,6044904589653;1
"Z1473";51,0383194154128;22,4636029228568;5
"Z4418";53,6637732238742;15,5404013395309;3
"Z4933";50,4506264015799;17,5072997547686;5
"Z0717";52,6651580419857;16,3086704015732;3
"Z3844";50,7984757069498;17,6499064248055;1
"Z2743";50,1600462369388;21,8049402628094;5
"Z4964";53,3710593734868;17,8024591188878;3
"Z4812";50,0761630365159;21,8384519387037;5
"Z0215";50,1016433987534;18,4756508432329;1
"Z4586";50,0017025882844;22,9035963062197;4
"Z3604";50,2160147944232;18,7533871941268;3
"Z3155";49,8447757893009;15,8056430779397;5
"Z2894";50,9440102390945;15,5309993196279;3
"Z4778";53,5819699036656;20,2449635304511;4
"Z3833";53,2125588250346;16,5594215504825;4
"Z3894";51,9963481826708;21,4338375423104;4
"Z0385";51,3431500957813;20,9752110615373;1
"Z3757";52,5610296578379;18,1219172105193;5
"Z1742";49,5477541278815;16,4708877801895;5
"Z3310";52,3207785364939;18,2044188827276;3
"Z1490";53,2123477372807;22,1495456248522;1
"Z0087";52,8022643651348;22,6136053781956;2
"Z2944";51,4875905056251;15,8486859425902;2
"Z3276";52,4197722641984;18,6503952872008;3
"Z1726";52,8134561389452;18,3518947996199;4
"Z0283";50,6885345022893;20,4422572012991;2
"Z0015";49,9528452929808;16,7713542636484;2
"Z0103";53,0787561944453;18,8801020905375;5
"Z0400";51,3017065833556;15,3885990809649;3
"Z0481";50,2029627839802;21,3932758811861;5
"Z3616";53,8657235320425;21,5963381621987;3
"Z0698";52,5584008907899;21,8392268698663;2
"Z4429";53,4668775805039;19,8910265788436;5
"Z3234";51,7455095839687;15,5600747074932;4
"Z1980";53,4759733389365;18,2614441867918;3
"Z0565";52,4990516571561;18,5924632344395;5
"Z4055";51,0969867508393;16,9065055493265;2
"Z3512";51,4008271921193;17,2379427049309;2
"Z2661";51,7279755896889;19,0006481222808;2
"Z0903";53,893144548987;17,580445760861;5
"Z3242";52,047632536618;19,8457698523998;1
"Z1692";53,0685896950308;18,8806535601616;3
"Z3923";50,4595323675312;20,4241965487599;2
"Z0008";53,6030516442843;15,0004037860781;1
"Z0879";51,3228956605308;16,6558921299875;4
"Z3625";52,7063807153609;21,6112077515572;1
"Z2265";49,5404253071174;18,355270748958;4
"Z0419";52,3077262106817;16,608340760693;2
"Z4978";50,9848320081364;20,6794950850308;5
"Z3945";51,7836339476053;18,0971236173064;4
"Z2925";52,9473919422599;21,623378155753;3
"Z1690";52,2620381894521;15,8164809569716;1
"Z2583";51,0538973762887;18,5261858459562;5
"Z4189";51,4405998339644;19,4327431917191;1
"Z0061";49,9804483784828;20,7746542785317;1
"Z4334";50,9379961125087;22,1256335824728;2
"Z4450";51,1044352421304;18,8529653139412;2
"Z3093";50,8933497040998;15,074490532279;2
"Z3336";52,2702699350193;20,3660933449864;2
"Z3623";50,5947558826301;16,7068855594844;1
"Z3282";49,6189673377667;18,1656206827611;1
"Z2842";51,6009511076845;16,4484964925796;4
"Z0944";50,5487175596645;17,0892179198563;4
"Z1010";51,4956296455348;20,9674920737743;3
"Z4292";52,5710996186826;21,8333024345338;3
"Z3380";51,4967694198713;18,2677071336657;5
"Z2173";53,7508513763314;17,4376156199723;5
"Z4124";52,609932333813;17,8063840158284;3
"Z4314";52,1933951717801;22,3474917672575;2
"Z3390";49,6606299835257;19,6218844987452;4
"Z0731";49,957369415788;16,886381149292;1
"Z1888";49,8901968322461;22,2376595921814;5
"Z3235";50,8086271681823;20,0580797754228;5
"Z1875";52,7752818013541;19,4168028328568;3
"Z2596";52,5789414978353;20,8504008445889;1
"Z1065";49,7112159531098;21,8236051760614;4
"Z3987";53,7116039172979;18,7452104184777;1
"Z0203";53,5390470282873;16,8453186471015;5
"Z3585";53,350482571288;19,7886690273881;1
"Z1383";52,3942404381232;17,8867306876928;1
"Z3286";50,6477506246883;15,548156702891;2
"Z4059";52,019343229942;16,1001101061702;4
"Z2172";52,819432457909;18,2150158081204;5
"Z0934";49,6452300322708;21,2536622025073;2
"Z2179";53,6000944176922;18,2624497301877;2
"Z4402";50,88791248505;21,6737197879702;3
"Z4250";49,9567604872864;22,2926184479147;2
"Z1763";51,0444591280539;16,6949773319066;2
"Z4083";51,3081392089371;15,2086494229734;3
"Z2943";53,7812325723935;21,1848810408264;5
"Z4705";52,1363047981868;17,4285631626844;3
"Z0379";51,1313610572834;19,5373659692705;4
"Z0169";52,5214657211909;21,4233597107232;1
"Z4445";51,2008228255436;18,3494748696685;1
"Z1302";51,4574660053477;17,9547391179949;4
"Z4927";49,8150280650007;20,9437392931432;5
"Z2748";52,3871208652854;19,7007520534098;5
"Z3692";51,3291594724869;18,0480128545314;5
"Z0728";51,7408436404075;15,6965218540281;1
"Z2315";50,892858888139;18,4385062977672;1
"Z2878";51,8245934334118;21,124225538224;1
"Z4175";53,5761422744254;18,865514902398;4
"Z0661";52,5297599171754;17,9235709831119;1
"Z1207";50,094221807085;17,8675293251872;4
"Z2411";53,4471444179071;16,2367831077427;1
"Z4719";52,199391461676;17,3633996360004;3
"Z4610";49,75265604991;16,1039451062679;2
"Z4176";51,6707361973822;16,6648839693516;4
"Z0559";52,6457076743245;22,0163826104254;5
"Z2104";53,6408588188933;22,1098582874984;1
"Z3353";51,7419091259362;16,5645323526114;4
"Z2519";49,558030756074;18,0801692418754;4
"Z2358";50,9259120463394;22,7496723458171;2
"Z0395";51,626465483685;16,3618827518076;4
"Z2578";52,3446683697402;17,3238237109035;2
"Z3653";50,7541632209904;19,2259990610182;1
"Z1039";52,5790204658406;17,453504960984;5
"Z4858";52,0095959210303;15,0511113647372;5
"Z0826";49,81672498025;21,1778137385845;2
"Z1866";50,921276052366;20,4177554734051;1
"Z4977";52,7023401382612;18,4940916690975;2
"Z0746";49,9238726128824;22,2985734082758;3
"Z0336";52,0264145565452;16,8329134657979;1
"Z0171";53,3292055857601;15,1528070960194;3
"Z1351";52,8925094478764;21,7459164969623;4
"Z2043";51,5549151850864;19,5151433348656;5
"Z1266";51,1230688802898;22,8892790917307;3
"Z2469";51,2141694169259;15,6285499576479;4
"Z2772";50,9460642370395;16,761238405481;1
"Z2816";52,5477124879835;22,1352256909013;4
"Z3532";49,6493583375122;15,7778722029179;4
"Z2787";50,9704649766209;16,5251369718462;2
"Z4760";51,9866774822585;21,9809790980071;2
"Z1042";50,310416757362;22,0130525678396;2
"Z0925";49,8552810873371;15,6490200515836;5
"Z2022";49,848010584712;20,6346573662013;3
"Z0462";50,9032972336281;18,9396466184407;5
"Z3256";51,6201832661172;18,1114234719425;4
"Z0633";53,7243311688071;21,881970860064;3
"Z2713";51,1870998259401;15,3260994702578;1
"Z0465";51,3375028461451;15,6750734765083;4
"Z1581";53,4363807697082;17,4277635831386;2
"Z2249";53,8571078387322;15,7717443015426;5
"Z0554";53,6232528439723;22,1811464801431;4
"Z0689";51,7940320861526;20,1683304607868;5
"Z3264";50,0304487453541;15,8834381978959;1
"Z0926";53,1435521637322;19,505776964128;2
"Z4145";51,4475636563729;18,022252837196;4
"Z1464";50,3276496181497;17,9084662944078;1
"Z2677";50,3606565857772;22,3555675540119;1
"Z4842";49,7014094564365;15,3936769030988;3
"Z2973";51,4527727043023;15,7664927411824;5
"Z4366";52,9290098460624;22,2170161735266;5
"Z4598";51,0169990954455;15,0257565490901;3
"Z3631";51,5263386043953;21,3862297851592;1
"Z1237";50,3520477939164;16,2174252327532;4
"Z3606";52,7749334138352;15,7463500760496;2
"Z4645";51,0048805859406;18,4656109437346;4
"Z0831";51,3670941389864;21,7399047780782;4
"Z3756";51,2678755206289;22,8111797291785;3
"Z0479";50,5208391548367;22,3746843170375;1
"Z4771";51,8982668335084;15,5217342525721;3
"Z3641";49,8771748206345;18,3839060869068;4
"Z0456";52,1809512862237;17,4410040974617;2
"Z1231";53,440945803537;17,0256269723177;1
"Z4657";49,6596072980901;17,0318960994482;1
"Z1873";50,2019780308474;17,6460049059242;2
"Z0406";52,2501088312129;19,8343409840018;4
"Z4173";53,6629924569279;16,9565206095576;3
"Z1038";51,2374982923502;18,6580351255834;5
"Z2060";53,5175272043562;21,2686415910721;3
"Z0327";50,5322849684162;19,453820483759;1
"Z2523";50,3921722871019;21,8118464630097;5
"Z1741";50,7066328700166;16,6794477086514;4
"Z0017";50,5587166148471;20,9532428476959;2
"Z0651";53,4868796031224;22,9372578971088;1
"Z2282";51,9676809181692;22,2084049023688;4
"Z2769";53,3820304339752;20,1286851335317;2
"Z2671";53,819829367334;16,6948051117361;2
"Z0202";49,954439794994;15,5568318087608;2
"Z2178";50,2766713974997;20,9009928405285;4
"Z1213";53,9412850427907;19,3425788562745;3
"Z4619";52,8246303537162;16,6133620198816;4
"Z0854";51,4744227610063;21,0806954577565;3
"Z0180";49,629765254329;19,7782780453563;4
"Z3444";51,5100780223729;21,6077483594418;4
"Z1481";53,4154058292042;15,0733113121241;4
"Z3624";51,7333502493566;17,2384191993624;4
"Z2012";50,8266243254766;22,2467418219894;5
"Z1587";53,6936501562595;16,0661722887307;4
"Z1750";49,5870542326011;17,3284635767341;4
"Z2079";51,2970473589376;22,3495831042528;3
"Z2797";51,6797235903796;16,9640196599066;5
"Z2989";52,88544004492;22,5102331638336;4
"Z0901";53,6761742003728;19,8445404637605;2
"Z1669";50,7570373053895;16,1189542599022;5
"Z4453";50,5472212893656;18,6269854400307;5
"Z0143";51,8685569356894;15,4616093635559;5
"Z2987";51,3287433549995;18,6209271196276;3
"Z0912";52,026991636958;16,898950856179;3
"Z2347";52,7783992553595;22,6541674286127;4
"Z4609";50,0382441133261;22,1722585801035;2
"Z3048";50,3543850017013;16,0655012391508;2
"Z1405";51,7281345975352;15,0581867881119;4
"Z3907";51,3861279836856;18,387058634311;2
"Z4937";53,4023139198544;17,5553561281413;3
"Z3909";49,5072331560077;20,8284098375589;2
"Z0828";51,0188378733583;15,1742231659591;1
"Z4434";49,7044259451795;15,5310298744589;5
"Z1560";51,9244817103026;19,0197127256542;1
"Z1677";52,1666754068574;22,2457420341671;1
"Z0594";50,484932883759;22,2348470725119;3
"Z0409";53,3124780552462;18,2628804463893;2
"Z1475";49,898115540971;15,7425420843065;4
"Z2962";53,8873778383713;19,1681983657181;2
"Z3966";52,5782031695126;21,599653089419;2
"Z3773";50,7769698294578;19,4855276551098;3
"Z2630";53,8990843479987;19,7048173975199;2
"Z3434";51,474160623271;20,241025980562;5
"Z3769";52,1144031848526;22,3812190331519;4
"Z4129";49,855255575967;15,5496561322361;2
"Z0380";53,7593605377479;16,8176245577633;1
"Z1241";51,5207890898455;20,0205885861069;3
"Z0908";51,368916012696;17,479285415262;2
"Z3678";53,2874424147885;20,5368787962943;2
"Z4887";51,6537328173872;22,8604209404439;1
"Z2361";49,5037070894614;22,1448979787529;3
"Z0220";52,6136207976379;22,3790743984282;5
"Z1697";52,3035583208548;18,5648311749101;4
"Z2380";51,2415639491519;20,995329849422;2
"Z4514";51,6658914594445;21,7340704295784;5
"Z3140";52,1021850449033;21,4021789226681;3
"Z3189";51,9629926546477;20,3898917064071;3
"Z1667";53,12548124569;15,2481535822153;1
"Z2186";49,5995248595718;22,0804372727871;4
"Z3443";49,9894424193772;17,3361129816622;5
"Z4805";53,9256791481748;19,9683175608516;4
"Z0351";51,0539623423247;21,4126972332597;3
"Z2614";50,8173728606198;17,38337309286;2
"Z2487";52,2534392253729;22,2712410818785;1
"Z0317";50,9441247882787;15,2468945644796;1
"Z1335";50,3886522942921;19,8667536694556;4
"Z4246";53,2846372401109;20,4842470288277;4
"Z3347";51,5695458232658;17,9747945498675;2
"Z3730";53,8858216416556;15,480495877564;3
"Z3892";51,2433785002213;22,7809087373316;2
"Z1045";52,3641573884524;15,2969111725688;4
"Z3809";53,0259839615319;16,1145938038826;1
"Z2363";53,0627430755412;21,5499824248254;4
"Z1423";51,4197660614736;19,0071117170155;3
"Z4005";53,7361360683572;19,892179671675;1
"Z4178";50,1174872451229;16,4952956773341;4
"Z2140";52,1784930940485;17,2543383091688;2
"Z2464";52,7703453832073;21,2537241373211;1
"Z1196";50,5177708565025;15,0152604300529;3
"Z0186";52,2146635731915;16,6284008547664;2
"Z0605";52,2830791552551;18,27113321051;1
"Z0189";53,2154111332493;20,2274731248617;1
"Z3535";51,9172435136279;21,1060285642743;2
"Z2275";50,8169972664909;20,6728101093322;2
"Z2684";52,2258056716528;16,7581923566759;5
"Z3261";51,751546517713;22,5150382854044;2
"Z0041";50,9266192715149;17,5569792147726;2
"Z2832";53,6094396215631;22,9957169014961;3
"Z0735";52,2128651970997;20,8311226293445;1
"Z3376";53,3039604878286;20,8560626152903;4
"Z2269";52,7426785135176;17,2402358669788;4
"Z0131";53,4268693296472;21,4381031170487;2
"Z0820";53,8257661813404;18,5270126983523;2
"Z4965";50,6914155918639;20,4862164929509;3
"Z3842";52,9724660828942;15,8573511093855;4
"Z0714";49,7925004963763;17,3621089477092;2
"Z2313";52,7921430399874;15,7094659022987;1
"Z4353";51,2609966142336;16,2392902113497;1
"Z1236";51,198633009335;21,1729479618371;2
"Z0756";52,2848096085945;16,1880150437355;4
"Z4199";50,9367106952704;16,2921850960702;3
"Z2975";51,4093892747769;21,1323901917785;2
"Z4474";50,1520822271705;16,9892886523157;1
"Z4371";49,8209740278544;15,45844184421;1
"Z4642";50,1114633295219;21,0317824147642;2
"Z4866";51,497622642084;21,2991967145354;3
"Z0069";52,2337738702772;17,4171797633171;2
"Z1540";50,3163753412664;15,5699497554451;5
"Z0355";50,2938687661663;20,9854968674481;2
"Z4473";52,3280762855429;16,7260962538421;3
"Z0138";51,7459335301537;19,7703113891184;3
"Z2716";53,1879668921465;15,2968412172049;1
"Z0876";50,3928098261822;18,7895479407161;5
"Z2929";50,4811733969254;21,5374242160469;5
"Z2895";51,8010999436956;15,5766947250813;4
"Z3238";53,8608721713535;18,3003631420434;5
"Z2848";50,2099001929164;19,6163293495774;5
"Z4970";52,7757209397387;15,3567110151052;5
"Z2156";51,836485683918;21,4432139098644;3
"Z3451";49,9511790816905;21,4783720206469;1
"Z1012";51,9504142175429;15,4575484823436;1
"Z1646";53,2119773682207;22,580056104809;5
"Z0994";50,6756461464101;20,0684716645628;5
"Z2546";52,3963583229342;20,6479407269508;4
"Z3052";53,9291423776885;22,5863291285932;4
"Z0018";51,6841527420329;19,4758588038385;3
"Z0962";52,2415573694743;17,0551536362618;2
"Z2556";52,180755975307;19,1043031848967;4
"Z0003";51,3770909362938;20,7758264373988;5
"Z4742";51,5230621467344;17,6444780956954;1
"Z4625";53,460452327854;20,4516965597868;5
"Z2248";50,9692184556043;22,4471940398216;1
"Z2871";49,7580916837323;19,699282258749;1
"Z1934";51,6713507742388;21,3517806921154;5
"Z3899";49,7585399384843;22,304767454043;1
"Z2555";52,1984693915583;19,7115159649402;5
"Z0440";52,7485536807217;19,2640688773245;3
"Z4177";50,3711752141826;16,9527729079127;2
"Z4131";52,485986295389;22,2433907240629;5
"Z1795";49,5304779410362;16,2070535067469;5
"Z0191";52,3212758337613;20,2725109867752;4
"Z4539";53,0945217360277;16,8557222187519;5
"Z3153";50,3404484867351;21,3280847053975;4
"Z1014";52,4637518125819;20,0380247235298;5
"Z4268";52,1842480039923;20,7336455713958;5
"Z1264";53,6512206166517;16,5206379350275;4
"Z2951";52,524271977134;20,371679879725;5
"Z3891";52,6826158961048;20,7737151272595;5
"Z3511";53,5617543091066;19,7976477183402;5
"Z2444";50,2979710613145;16,0192816592753;4
"Z3921";51,1635863977717;16,5338033661246;2
"Z0975";51,8696772168623;16,5028955675662;5
"Z4922";53,094250345719;21,1146968714893;4
"Z2297";51,4189090254949;21,6353000160307;3
"Z0678";49,7839462644188;20,849635316059;4
"Z3847";52,1715130558005;21,3471550866961;5
"Z0118";49,9576535958331;17,3429689388722;4
"Z1495";50,5911942516686;18,9896555989981;1
"Z3319";50,8442037936766;18,1787676401436;3
"Z4233";51,1428577395855;15,7442673947662;5
"Z3565";49,5282717706868;21,8270514458418;5
"Z1740";50,9925498875091;21,7728183940053;4
"Z3799";51,3093501257244;21,2178106755018;4
"Z4281";49,8630176751176;19,6482045911252;5
"Z1691";52,1835693757748;15,7448076140136;5
"Z2362";52,0387306893244;21,2948862276971;4
"Z4133";51,6615241515683;21,460506239906;3
"Z3539";51,017960628611;16,4417200554162;4
"Z4910";50,5050259338459;21,7846792936325;4
"Z1947";53,6820394056849;19,4482101593167;2
"Z4502";53,9075562225189;21,5297902431339;3
"Z4071";51,5943561288295;21,018397519365;4
"Z1488";51,9676886064699;16,0496007557958;5
"Z4547";49,7841172803892;20,7075903397053;2
"Z3785";50,2933845069492;19,4548840261996;5
"Z2166";50,7295302188722;20,1545461583883;5
"Z1023";52,4878648223821;22,7081837262958;3
"Z1891";52,6972564511234;22,8093191441149;3
"Z2416";52,182177881361;16,3539409264922;3
"Z2482";52,5164475438651;21,685452112928;3
"Z1591";52,0997198737459;18,3821214791387;1
"Z1865";52,6046890353318;19,4275938235223;4
"Z4364";49,930242126924;21,9110726416111;1
"Z0672";52,8753260707017;18,8403635080904;3
"Z3275";53,0573723627022;17,7848953623325;5
"Z3804";52,3631011942634;15,0606349911541;5
"Z4348";53,5645095108775;15,0126283839345;2
"Z0213";53,240173525759;19,8892533704638;2
"Z2966";51,890633198549;20,5398858897388;5
"Z0119";51,9006249269005;21,6140327658504;5
"Z1548";53,0879126535729;22,6155803259462;1
"Z3115";53,4685149790021;15,1167180724442;1
"Z1160";50,046049527009;18,3394234329462;5
"Z1574";53,9164477883605;17,6696041021496;1
"Z4821";50,6250529956305;20,0584931652993;3
"Z2876";50,034745987854;19,4751977529377;4
"Z3800";53,472647939343;20,1378600150347;1
"Z0844";49,5543177343206;20,0829883832484;5
"Z0058";52,0003519527381;19,6681347377598;4
"Z2122";52,8101188726723;21,0753358416259;5
"Z0900";52,5287141762674;15,1016791630536;3
"Z0401";53,3426858768798;20,6449053660035;3
"Z3000";49,7028651059372;17,9112162422389;2
"Z3681";53,4901112364605;17,4254140965641;5
"Z0805";51,2400344068883;15,852312894538;1
"Z1956";52,559315352235;19,158397661522;1
"Z4795";53,0148444457445;19,886802315712;4
"Z2779";53,6573419404449;18,4521032329649;2
"Z3722";50,6701035584556;20,9724631868303;2
"Z1586";51,0871904465603;15,9269417729229;1
"Z4800";53,4313128677895;19,939153406769;4
"Z0577";50,2268266500905;18,7600645460188;4
"Z2550";51,9059182988713;18,6741434298456;4
"Z1159";50,3414635090157;21,39821110107;5
"Z1830";51,9195731955115;21,4668399356306;2
"Z3824";50,9476703773253;22,327312014997;2
"Z2794";49,5554353049956;21,0785375498235;5
"Z2091";52,5855684431735;16,851076958701;4
"Z0047";52,6279776765732;21,3277377393097;3
"Z1960";51,0678833790589;21,6064430493861;3
"Z2788";51,4167367630871;20,8358928002417;1
"Z1299";53,2278846194968;16,8974363226444;2
"Z1255";53,8009165175026;19,9638029839844;1
"Z3010";51,1671329601668;17,6381465345621;3
"Z4676";50,226497948519;20,0871515870094;2
"Z0956";49,6969829775626;22,136226920411;4
"Z4738";50,9716082912637;17,4837908949703;1
"Z4069";51,8963890221203;18,9929796047509;3
"Z2959";50,5222719825106;21,5750575121492;3
"Z2211";51,9855610745726;20,994339691475;4
"Z2838";52,934438359458;18,6796573996544;3
"Z1720";53,4867049106397;22,2612278889865;5
"Z3470";49,6678052562056;18,6256125755608;4
"Z4484";52,6012701838044;15,0934418141842;1
"Z0070";52,4368652624544;22,0325059480965;2
"Z0776";53,685778351617;15,3472630847245;1
"Z4724";52,4925935369683;20,001775695011;3
"Z4338";50,4109580117511;20,8634178582579;5
"Z0333";50,5370851649204;21,5771896783262;1
"Z4967";52,0918987293262;19,1482588555664;2
"Z1291";50,6985683811363;19,7568747904152;5
"Z4120";51,5349332916085;17,0050413310528;1
"Z2420";49,5367112722015;16,9487172439694;4
"Z4995";51,6905422060518;21,0858250726014;3
"Z3658";52,864196997718;19,7957628108561;4
"Z3948";52,1325306053041;19,6051825545728;3
"Z0034";50,3290047749178;15,8153975699097;1
"Z4303";50,1845848389203;21,3844030983746;5
"Z2576";52,3756068450166;17,3480878267437;1
"Z0039";49,9476519935997;17,0007661003619;4
"Z1329";50,2061897779349;22,7947639692575;2
"Z0304";52,911563397618;17,5185595154762;2
"Z3579";53,4364974772325;19,7041504345834;3
"Z0480";50,7155798831955;18,0913692880422;1
"Z0804";51,7914509618422;19,5535120889544;5
"Z2078";49,6569571833825;21,8349102772772;3
"Z2109";51,8484695171937;20,7088474165648;2
"Z1709";52,4114189852262;20,1049508284777;4
"Z4756";49,9338594703004;22,7120483480394;2
"Z3431";51,3627870362252;17,901898406446;2
"Z3377";52,5490927778883;17,2708308640867;3
"Z4765";52,2670038510114;20,1919217966497;4
"Z4204";50,8113782460568;21,7163965925574;2
"Z3774";50,3271843146067;20,0118631143123;2
"Z0185";53,9157912118826;22,5754074975848;2
"Z2668";51,6280452985084;21,8389817420393;3
"Z0721";49,8918094685068;20,1226327009499;1
"Z1524";53,0660936868517;15,8187199905515;5
"Z2806";53,6082019235473;15,4251281190664;2
"Z0579";51,8151531787589;17,1651135869324;3
"Z2509";53,9618645544397;16,7844742741436;1
"Z1953";52,7538806787925;15,7485766876489;2
"Z0920";53,0093336765422;21,8448139876127;3
"Z0268";52,0668206879636;22,632759122178;3
"Z4193";51,8619537980994;15,3923346009105;3
"Z2983";52,4501852371031;16,7888352461159;3
"Z1339";50,5344584755367;15,7852449975908;5
"Z1465";53,4322029179893;15,1048114970326;5
"Z1868";51,3733033239841;16,9608759563416;1
"Z3108";51,0015272316523;17,2429729700089;2
"Z0342";52,7866908058058;15,6002529449761;1
"Z4716";53,2236038369592;20,963441522792;2
"Z0310";49,8566780079855;22,1563039440662;5
"Z2682";49,7383229483385;17,0616497490555;1
"Z3167";52,1953056809725;20,0524270813912;3
"Z2182";53,8982336351182;17,4414757043123;5
"Z1349";51,2404343881644;18,9514849968255;3
"Z3207";52,5646603263449;18,7433163709939;2
"Z0589";50,6301383078098;22,9078254811466;5
"Z2203";53,3285837061703;19,0893536508083;4
"Z4290";50,4982009283267;20,0379295405;2
"Z0054";50,5257111643441;19,3379980996251;3
"Z1433";52,9884408692596;18,6913046929985;1
"Z0931";49,7611676651286;17,401196224615;1
"Z0604";52,35014041455;15,9877580702305;1
"Z2652";52,58851525106;21,934276400134;2
"Z0752";49,960622851504;17,2928646542132;2
"Z3985";52,8781509543769;15,5959877390414;5
"Z0296";49,630721053225;18,326460942626;1
"Z3289";53,2573295569746;22,5457412507385;4
"Z2152";51,9080947291804;20,2274188026786;3
"Z2279";50,3986889946973;19,6783125977963;4
"Z0001";50,3283427491551;15,6347656343132;3
"Z2170";50,6172426481498;18,4778424985707;1
"Z4389";49,9291567333275;16,1387866325676;2
"Z1693";51,6381907687755;19,5068898852915;3
"Z3759";50,2984208468115;18,5479459930211;1
"Z0531";51,8513017455116;22,4721321035177;4
"Z1144";52,5291881561279;16,1990517228842;4
"Z4477";51,8105358984321;19,7684776335955;5
"Z3996";52,4375680986559;20,9780522733927;5
"Z4479";53,4048914284213;16,290904616937;5
"Z4311";52,9797191385878;18,7999232448637;1
"Z0969";49,8550984865287;17,7537876069546;4
"Z1501";53,739687256515;22,3848802559078;5
"Z3295";52,5483383646933;20,2387655097991;5
"Z1575";49,8379585600924;19,6947430279106;3
"Z1511";50,3887650046963;18,705223120749;5
"Z0110";50,1408152645454;15,2315331529826;2
"Z3185";49,7869743400952;15,4239408168942;1
"Z0427";49,9629423273727;16,6006020829082;2
"Z1954";50,4451238036854;18,022937361151;5
"Z1775";49,6646870541153;22,1700303256512;2
"Z1117";51,2745758662932;18,5505482405424;5
"Z3331";51,8264607454184;18,6465380620211;5
"Z4525";53,6218150500208;16,1870741099119;2
"Z3477";51,9469292527065;16,8683397807181;2
"Z0210";53,7861721169902;19,302148476243;2
"Z2818";51,3904365291819;15,0567783396691;1
"Z4114";51,4781779238256;15,1325478125364;3
"Z2839";49,7459294332657;16,1000155005604;1
"Z0278";51,8444441008614;17,0833209902048;2
"Z1517";51,0068239605753;22,7585804406554;2
"Z1959";51,4646984027931;19,5803994946182;2
"Z2564";52,7012522039004;18,7666470780969;4
"Z4172";53,2496920998674;20,6346844770014;5
"Z2084";52,178781325696;20,2377293240279;3
"Z1940";53,7298505137442;17,285899668932;2
"Z4621";51,6842970501166;18,7980650831014;4
"Z0864";50,1891229668399;15,8669824097306;2
"Z2027";52,4264836247312;17,360907252878;3
"Z3342";52,0103120949352;20,5756248906255;2
"Z2289";53,4418142085196;17,1892102304846;2
"Z3475";52,9312201916473;18,5188117064536;2
"Z3595";49,9327294954564;18,3510701842606;2
"Z1411";50,8368931857403;19,6942374352366;4
"Z2200";50,5887750374386;18,8185689337552;1
"Z4272";53,8154349775286;21,9414907116443;4
"Z4097";53,9576500193216;18,8567539080977;4
"Z0025";49,7734487343114;19,3417131472379;2
"Z1429";50,8666437211214;20,4567382540554;2
"Z1317";52,0017987216124;15,6748416647315;2
"Z1020";50,9520413900027;21,8930608797818;5
"Z2577";50,9087290086318;19,8164654951543;2
"Z1590";53,3696486384142;19,566535089165;5
"Z4270";50,1663192993728;17,7305290736258;2
"Z4156";50,3310796637088;15,1989546231925;2
"Z0492";51,7101282400545;20,5418200809509;4
"Z4920";50,8156939056935;20,7021619789302;1
"Z0075";53,0797272023046;15,6688233427703;5
"Z0703";50,6627974725561;19,7356964200735;5
"Z2676";51,0876876421971;18,7985932826996;5
"Z2086";50,100210980745;18,7848542239517;5
"Z1542";49,6411422493402;15,5421063452959;3
"Z4826";49,9742877990939;19,6762197837234;1
"Z0552";52,2205250014085;17,2545996978879;5
"Z3877";49,6608383544954;22,3423809111118;1
"Z3463";50,3298746781657;15,1490556895733;5
"Z2141";51,3621901965234;15,6537165045738;4
"Z1804";50,1690788387787;17,6489189583808;2
"Z1336";53,4520370804239;21,0630113892257;2
"Z0758";52,8640339969425;22,6574127245694;3
"Z2077";52,2255045213969;20,7099300343543;1
"Z0766";53,582034140476;21,152907865122;3
"Z4893";51,5228047039127;15,085571192205;2
"Z4666";52,7758613376645;15,0819931067526;5
"Z4291";51,7470908677205;22,0891471449286;3
"Z0890";53,9967814466218;20,5073009487242;4
"Z4122";53,3148436745396;22,8282255697995;4
"Z0020";53,130756272818;18,430074185133;2
"Z3537";49,6720363267232;21,076724678278;2
"Z4577";53,2516038422473;15,7895959690213;3
"Z2160";50,8029140367871;22,5911655593663;1
"Z2685";50,171568118385;22,0289448555559;1
"Z0466";51,984457037528;19,9559052251279;2
"Z0330";52,6772199862171;16,2808250915259;4
"Z2857";50,6727482532151;19,8132377173752;2
"Z1666";53,1090385909192;21,3381586708128;4
"Z0100";51,7449880252825;20,0940776206553;4
"Z0799";50,8065504489932;16,7305044215173;4
"Z2071";51,5217011142522;15,0033447630703;1
"Z2659";53,3802396990359;17,4969371426851;1
"Z2386";53,0757554469164;22,057851433754;3
"Z1404";53,8019461012445;21,1383940242231;5
"Z3251";51,0680793165229;21,1425550747663;2
"Z0321";52,9202444383409;20,4537428561598;5
"Z1512";50,1007960459683;18,2636348828673;5
"Z4740";49,5180246174568;16,3861442562193;3
"Z2056";52,8500795447035;18,5306529700756;4
"Z0722";51,2108789772028;19,3936362043023;5
"Z4403";53,4082601561677;20,9390917215496;1
"Z4054";49,5078630298376;19,1500868350267;2
"Z3725";51,1615235548234;15,8991555366665;3
"Z3679";51,9679786140332;22,164699876681;4
"Z0863";52,0995909181656;17,2360680755228;3
"Z3129";52,3044249457307;18,5023982971907;2
"Z4859";51,9707818860188;15,4285566657782;1
"Z1413";51,8653860114282;19,084347769618;2
"Z0158";52,788570687524;17,5522030256689;2
"Z4123";52,2121144237462;19,1099513899535;4
"Z2135";49,7769216868328;16,5256448201835;5
"Z3840";50,8569900108268;15,7960991114378;1
"Z1278";51,3557841007132;22,1051288750023;4
"Z0803";52,4175986344926;21,7394568715245;5
"Z0354";52,1152477883734;19,863594789058;3
"Z4508";53,1253903785255;20,192135900259;4
"Z2679";52,7988952025771;18,0531102307141;3
"Z4406";50,9257213517558;17,2874308917671;4
"Z3150";49,9210127955303;21,7412434946746;2
"Z3215";51,7134865543339;18,1526509672403;1
"Z2544";50,8561823159689;17,0308514945209;1
"Z4025";51,671088682604;17,7075003609061;1
"Z1544";50,5976186996559;19,4571550153196;5
"Z0910";53,5326842564391;16,0668838024139;4
"Z4955";50,484213252319;22,7806107606739;2
"Z4107";52,4273216861766;15,7427514754236;5
"Z0247";52,7507530921139;22,397043151781;5
"Z3522";52,4261878535617;18,4251057077199;5
"Z1136";52,5947855055565;16,231374213472;4
"Z2950";49,8539172427263;15,0497005619109;2
"Z1158";52,7366696193349;15,407934807241;1
"Z2613";53,5745040555485;21,8661724384874;4
"Z4454";51,7420840761624;17,2253105193377;4
"Z1607";49,9892499048728;19,8953894730657;1
"Z3292";51,214834159473;16,9097313005477;3
"Z1422";53,9772707554512;20,3260616585612;1
"Z0648";50,5426753809443;17,1538392510265;2
"Z3378";50,8831439941423;21,2664006855339;1
"Z4441";50,8912544493796;21,2559463754296;1
"Z0503";52,0827392516658;22,6881284378469;1
"Z1141";52,6658690023469;19,6636030431837;5
"Z4104";52,245531221386;15,4864939637482;3
"Z2765";50,7341127478285;15,2040489446372;5
"Z3946";51,5242628239794;16,9639992453158;2
"Z2680";52,2427384320181;20,4595583546907;2
"Z1871";50,0835780180059;20,5377141609788;1
"Z4367";52,3423110569129;22,3680215962231;3
"Z0399";53,1903524457011;16,5747824925929;3
"Z4458";52,9980488719884;21,4647129513323;3
"Z4485";51,0640182393836;20,5719848331064;1
"Z3902";53,8851143410429;22,6906999368221;1
"Z1150";50,5184077051235;17,7196625545621;5
"Z1032";51,1425405285554;15,8178617376834;4
"Z1839";53,5597075395053;20,74156585522;5
"Z2061";53,9094928968698;17,2232153806835;4
"Z0927";50,1684145017061;22,1700717937201;4
"Z4675";50,7156573120737;16,5102394260466;2
"Z3324";53,0637910921359;22,3464870192111;5
"Z1368";52,1405969193438;22,2810692489147;1
"Z0398";50,046905518393;21,1124395113438;5
"Z4072";51,4713396570878;17,0911934040487;5
"Z3564";50,8636191145051;18,5337152816355;2
"Z1757";50,848191957688;21,6041181012988;5
"Z2013";53,2313717971556;21,7244902439415;1
"Z2771";51,9752686601132;21,6845033876598;5
"Z0368";53,9169888831675;19,5287645366043;5
"Z0811";53,0555214079795;15,5224676094949;3
"Z2875";53,6365337191382;17,6471056863666;4
"Z3514";51,232279445976;19,5018616057932;4
"Z1862";51,2634214757709;17,8335724659264;3
"Z0873";50,5083426267374;19,2544886749238;1
"Z4636";53,2145876039285;17,3325651697814;1
"Z4318";50,510818018578;22,6477752812207;3
"Z4798";51,9815173919778;22,905360031873;5
"Z3657";49,7428266643547;15,0785210933536;5
"Z4889";52,7662582257763;18,6585621647537;3
"Z0996";51,5920919599012;22,3872945550829;1
"Z2645";53,808148447657;20,5591304209083;2
"Z2100";51,548512356123;15,9051143191755;1
"Z3815";52,5959489713423;19,9615815319121;4
"Z4620";50,2141022358555;21,0368849653751;5
"Z2126";50,0000800163252;16,114695744589;3
"Z0684";53,1540204577614;20,3887452445924;2
"Z2581";52,9699710595887;15,0658100638539;3
"Z3587";50,4458021752071;16,6541792359203;3
"Z1850";51,6462503825314;21,4546879902482;2
"Z4424";52,0467144887662;17,2068132031709;2
"Z3173";51,030952873989;17,706350389868;4
"Z1309";49,8450534010772;22,0617025718093;2
"Z1905";53,1792767413426;20,6747168041766;2
"Z1211";53,4630666057346;21,5718160364777;2
"Z1645";53,6449840689311;21,3314027357846;2
"Z1258";52,0436916591134;21,5505601651967;1
"Z4405";49,7838862730423;15,9019225463271;4
"Z2356";51,4627416653093;15,6173797138035;2
"Z0821";50,8221871502465;19,886605611071;3
"Z1412";53,8055372176459;16,7572568859905;2
"Z0319";52,63253645855;15,2523290663958;5
"Z1387";51,7623593173921;22,0411357488483;3
"Z3356";53,9225989213446;20,8495275285095;1
"Z0535";51,352478307439;17,4253418371081;4
"Z3812";51,46130054479;20,4293938800693;4
"Z3455";51,7974640836474;21,1412362176925;5
"Z2898";51,5217377064982;20,6736726164818;5
"Z3008";51,256602657144;16,6222940534353;2
"Z3327";49,5724330251105;15,6187306474894;1
"Z0549";53,1867557270452;21,4866399541497;5
"Z1971";50,3135398041923;17,1269308831543;4
"Z2778";52,1140977587784;22,0032397527248;3
"Z1550";52,254468208761;20,0891467500478;3
"Z2852";51,5727258921834;16,9745161514729;1
"Z0833";52,5137554274406;17,4991340208799;3
"Z1062";51,9446849740343;20,3515829518437;1
"Z1612";53,3523562346818;20,7625186797231;3
"Z0312";53,4878062088974;21,9893120210618;5
"Z4349";50,7669954684097;21,4870831016451;4
"Z1538";52,9705035671359;17,8382480870932;2
"Z4180";50,1613837812329;17,0094585828483;4
"Z0286";52,4799363696948;20,1253959219903;5
"Z0856";51,6144906148547;17,807264585048;2
"Z2023";53,4159346151864;20,9328469857574;4
"Z0030";51,4634651262313;22,5806747060269;5
"Z0576";51,9594711908139;22,8395103439689;5
"Z1424";53,2950484208995;21,1653442513198;1
"Z2817";52,7804599441588;16,621145196259;3
"Z1197";51,781444709748;18,4590051267296;4
"Z0850";53,8780129915103;20,7128075137734;1
"Z4351";50,9653107442427;16,9343930073082;4
"Z2033";50,0716983812163;15,9075334519148;2
"Z2942";51,3071071231971;17,0676061753184;1
"Z0677";51,5102002933854;20,7597239166498;1
"Z0780";53,0194498331985;16,7985578421503;2
"Z2215";51,6745129897026;21,0952876675874;3
"Z1499";50,2511733913561;18,5131890568882;5
"Z4667";50,7659256745828;21,3327388260514;1
"Z2285";49,7826740549644;19,4568899031729;2
"Z0941";50,7934452207992;20,8951567616314;4
"Z1282";50,954583651619;22,2246340159327;3
"Z4045";51,8901042952202;19,829088749364;1
"Z2731";51,0206251675263;20,9027107078582;5
"Z3822";49,7955477006035;15,7318128310144;3
"Z2851";50,0847812884022;15,8248840495944;3
"Z4522";51,1749434249941;18,4055048655719;2
"Z3128";53,9637282905169;22,769644767046;1
"Z1496";53,3178937464254;15,7226131670177;3
"Z4226";51,4409801167203;16,5417533665895;4
"Z2434";50,0362913561985;16,6716691404581;3
"Z0117";50,2172943768091;21,9838009197265;1
"Z4534";50,0035120263929;17,9251451399177;1
"Z0878";49,8926566337468;18,4340121652931;2
"Z4306";51,1256131839473;21,7749448306859;1
"Z0518";53,8802850719076;19,5225532986224;5
"Z0998";53,8405723470496;17,4501671362668;5
"Z2378";52,5146724726073;16,5561128556728;4
"Z1593";50,329215610167;16,7442925591022;3
"Z4195";52,769401861704;16,4184651877731;1
"Z4457";49,6842052711872;17,4403500854969;3
"Z4957";53,4699533523526;15,8719279021025;4
"Z2390";53,1519122687168;22,5362959951162;2
"Z1178";50,7825164470123;15,543637836352;5
"Z2728";53,5058860400459;15,1433564964682;1
"Z4316";52,3824411387322;19,1577877141535;2
"Z0226";51,4781135340454;22,2788540814072;3
"Z4227";52,4627701073186;15,6106381136924;3
"Z0966";53,5728243389167;16,9943450503051;3
"Z1334";53,5482739048311;16,9527133591473;3
"Z2404";52,5051177766873;16,8948004618287;3
"Z2819";50,4492662701523;22,8039898872375;3
"Z2665";53,7479877179721;20,2403736300766;4
"Z2735";51,0410694413586;15,1870772372931;2
"Z0808";49,7179985262919;18,2012914381921;3
"Z1279";50,6812506671995;18,2601202875376;2
"Z0862";52,6963767232373;18,9197094514966;5
"Z4061";52,9612224774901;16,7392646912485;1
"Z4138";50,7683831218164;17,7111502680928;4
"Z3789";49,5565656863619;17,9264488499612;2
"Z1385";51,1780053310795;18,6830082181841;4
"Z0537";52,0675541474484;19,8478284738958;4
"Z2157";50,2734820676269;16,9087445605546;3
"Z3274";50,7433456383878;16,2745921481401;3
"Z0895";51,3017656799639;16,7024690825492;1
"Z4817";49,5852063383209;19,281650653109;1
"Z1360";51,878372321371;16,3435669373721;3
"Z1901";53,1910107918084;18,6697076484561;2
"Z1382";50,0079076871043;22,6778020262718;5
"Z0424";51,6396371468436;18,4407653864473;1
"Z1887";49,6054680721136;17,3328468184918;3
"Z2462";53,1755765868584;17,3636372555047;5
"Z2642";51,7404283034848;17,6646913960576;4
"Z1270";50,7842611883534;18,22047903575;1
"Z1629";52,6343478695489;21,0900698527694;4
"Z4879";50,0917959774379;17,0946543961763;4
"Z4249";53,5237738449359;21,0260654352605;5
"Z0841";51,4024109097663;20,1169269531965;3
"Z2205";53,1872476546559;16,2702083531767;3
"Z4139";51,3529094662517;21,9146616831422;4
"Z0544";53,6963812935865;18,3433879632503;3
"Z3450";50,5265400224598;22,414170300588;4
"Z3222";51,4339198615635;19,1553253550082;3
"Z2766";52,9983257901622;17,0209118630737;3
"Z3246";53,5992701539071;20,0463472735137;2
"Z3375";53,8262790385634;21,7268589437008;2
"Z3995";52,4935950340005;21,1457568109035;4
"Z4751";50,4538092931034;22,5903762150556;4
"Z2440";51,9274394932436;18,462602801621;1
"Z3890";52,1499754601391;19,5502822231501;5
"Z2615";50,2611320709111;15,5516629330814;3
"Z0709";52,8995679271175;22,2829214390367;5
"Z3458";49,6214762079762;22,2511877045035;3
"Z4077";53,0305643248139;20,7655451763421;2
"Z0772";50,4014513650909;21,5007318910211;2
"Z4681";51,2692580160219;16,8885048460215;5
"Z0271";49,5953632394085;22,5585665591061;4
"Z4761";49,9002440907061;17,7915555965155;2
"Z4302";50,3582891444676;16,9420270454139;5
"Z0861";50,4024951498723;18,8907905500382;2
"Z4612";49,7871746424353;17,6696827299893;5
"Z1704";51,000013741781;16,2566183842719;4
"Z1123";51,5370530633954;20,3911518845707;2
"Z4836";50,3860685453983;18,9864354617894;3
"Z4084";52,0232099852292;21,5379191040993;1
"Z0392";49,972448333865;16,1966930981725;5
"Z3711";51,3140660830541;21,6078740749508;4
"Z2513";51,6890652434668;21,7265225742012;1
"Z4044";50,9613047655439;20,2813577856869;1
"Z1120";49,8026211771648;19,3363061081618;3
"Z2493";52,4569879593328;18,7781417965889;2
"Z4437";51,5328740099212;20,1223037373275;2
"Z1797";53,2296962264227;21,6549327485263;4
"Z2915";51,4964177298825;16,7604956403375;2
"Z1332";49,7916559819132;21,4401308167726;1
"Z1127";49,8207105972106;18,5087178405374;4
"Z2881";51,6259675022447;21,1574544459581;2
"Z4439";50,8764573172666;19,5833643954247;1
"Z0574";51,1880940768169;22,7894849590957;3
"Z3961";51,6792814166984;18,6007304098457;3
"Z2045";53,695134784095;20,296482603997;5
"Z0872";53,4062605410581;22,4538214728236;5
"Z2916";49,8123100107769;19,2999899238348;5
"Z1194";53,4689397256589;15,5824409555644;4
"Z2792";53,5718704898609;17,331116784364;3
"Z0707";53,4867730356054;21,722673593089;2
"Z0778";50,9829922139179;18,8722480051219;1
"Z4892";52,0607363388408;16,3152984268963;5
"Z2902";51,202312758076;16,5561085529625;5
"Z1374";51,9722424389329;18,9903783649206;2
"Z2266";51,5777742475038;19,5903233792633;5
"Z3664";51,9796396895545;17,3864238094538;4
"Z2638";53,8982780183433;19,0929017588496;1
"Z3223";52,7497076980071;21,4921248201281;3
"Z1614";52,9356825146824;22,1800004355609;3
"Z1129";49,9596990578575;16,5634673777968;1
"Z4467";51,3222692903364;18,9840250965208;2
"Z2204";51,1280696756439;16,4321401007473;1
"Z3947";51,2717586908257;20,7512576226145;2
"Z2221";50,7066973855253;19,0722147654742;2
"Z1882";53,3132003772771;20,9198593106121;5
"Z3973";51,8490179377841;22,4161336906254;5
"Z4343";53,0097949557239;22,6291478239;5
"Z4818";51,8990781420143;15,622134199366;1
"Z4786";51,6012509084539;22,4424622319639;2
"Z3541";49,7405857782578;18,0586276184767;3
"Z4909";52,8247398622334;22,6559145599604;2
"Z2443";52,9884703211719;21,0020448565483;1
"Z0526";51,9677426634589;19,4306119102985;1
"Z4703";50,5008449871093;16,628905903548;3
"Z2303";50,697060083854;17,2022598367184;2
"Z0814";53,2619763143593;16,6834273524582;2
"Z4018";50,9717767350376;17,08418976143;1
"Z3665";50,9443268267205;15,226252509281;2
"Z1015";50,5873766677687;20,3281707186252;2
"Z1778";49,5581630591769;16,9657607972622;2
"Z2201";51,6029600434704;19,4492474906147;5
"Z2051";52,3045155677246;18,3066031597555;2
"Z4908";52,3355288965395;18,1286995597184;4
"Z1477";53,3844749772688;18,7923996355385;5
"Z3085";49,5264572720043;19,0730762053281;5
"Z4856";49,7674040001584;19,6231467537582;1
"Z2470";50,5482480683131;22,6278793662786;3
"Z4845";53,6147643743316;15,7173595540226;5
